5.3 Axe sociopolitique et socioéconomique
…
## $gt_tbls
## # A tibble: 2 × 15
##       i gt_tbl        column_names n_columns_total n_columns_data n_columns_stub
##   <int> <list>        <list>                 <int>          <int>          <int>
## 1     1 <gt_tbl [17]> <chr [3]>                  3              3              0
## 2     2 <gt_tbl [17]> <chr [3]>                  3              3              0
## # ℹ 9 more variables: n_rows_data <int>, n_summary_rows_total <int>,
## #   n_summary_rows_group <int>, n_summary_rows_grand <int>,
## #   n_groups_summary_rows_total <int>, n_groups_summary_rows_group <int>,
## #   n_groups_summary_rows_grand <int>, n_groups <int>, active <lgl>
## 
## $gt_tbl_options
## # A tibble: 191 × 5
##    parameter              scss  category type   value     
##    <chr>                  <lgl> <chr>    <chr>  <list>    
##  1 table_id               FALSE table    value  <chr [1]> 
##  2 table_caption          FALSE table    value  <chr [1]> 
##  3 table_width            TRUE  table    px     <chr [1]> 
##  4 table_layout           TRUE  table    value  <chr [1]> 
##  5 table_margin_left      TRUE  table    px     <chr [1]> 
##  6 table_margin_right     TRUE  table    px     <chr [1]> 
##  7 table_background_color TRUE  table    value  <chr [1]> 
##  8 table_additional_css   FALSE table    values <chr [0]> 
##  9 table_font_names       FALSE table    values <chr [10]>
## 10 table_font_size        TRUE  table    px     <chr [1]> 
## # ℹ 181 more rows
## 
## $use_grp_opts
## [1] FALSE
## 
## attr(,"class")
## [1] "gt_group"
…
